str[0] = " "
str[1] = "Leave the Abandoned Temple"
str[2] = "Door"
str[3] = "Chest"
str[4] = "Lever"
str[5] = "Button"
str[6] = ""
str[7] = ""
str[8] = ""
str[9] = "Bookshelf"
str[10] = ""
str[11] = ""
str[12] = ""
str[13] = ""
str[14] = ""
str[15] = "The door is locked"
str[16] = ""
str[17] = ""
str[18] = ""
str[19] = ""
str[20] = ""
str[21] = ""
str[22] = ""
str[23] = ""
str[24] = ""
str[25] = ""
str[26] = ""
str[27] = ""
str[28] = ""
str[29] = ""
str[30] = "The button will not move"
str[31] = ""
str[32] = ""
str[33] = ""
str[34] = ""
str[35] = ""
str[36] = ""
str[37] = ""
str[38] = ""
str[39] = ""
str[40] = ""
str[41] = ""
str[42] = ""
str[43] = ""
str[44] = ""
str[45] = ""
str[46] = ""
str[47] = ""
str[48] = ""
str[49] = ""
str[50] = ""
str[51] = ""
str[52] = ""
str[53] = ""
str[54] = ""
str[55] = ""
str[56] = ""
str[57] = ""
str[58] = ""
str[59] = ""
str[60] = ""
str[61] = ""
str[62] = ""
str[63] = ""
str[64] = ""
str[65] = ""
str[66] = ""
str[67] = ""
str[68] = ""
str[69] = ""
str[70] = ""
str[71] = ""
str[72] = ""
str[73] = ""
str[74] = ""
str[75] = ""
str[76] = ""
str[77] = ""
str[78] = ""
str[79] = ""
str[80] = ""
str[81] = ""
str[82] = ""
str[83] = ""
str[84] = ""
str[85] = ""
str[86] = ""
str[87] = ""
str[88] = ""
str[89] = ""
str[90] = ""
str[91] = ""
str[92] = ""
str[93] = ""
str[94] = ""
str[95] = ""
str[96] = ""
str[97] = ""
str[98] = ""
str[99] = ""
str[100] = ""
str[101] = ""
str[102] = ""
str[103] = ""
str[104] = ""
str[105] = ""
str[106] = ""
str[107] = ""
str[108] = ""
str[109] = ""
str[110] = ""
str[111] = ""
str[112] = ""
str[113] = ""
str[114] = ""
str[115] = ""
str[116] = ""
str[117] = ""
str[118] = ""
str[119] = ""
str[120] = ""
str[121] = ""


event 1
      Hint = str[100]  -- ""

  0:  OnLoadMap  {}
  1:  Cmp  {"QBits", Value = 403,   jump = 3}         -- Roster Character In Party 4
  2:  SpeakNPC  {NPC = 452}         -- "Simon Templar"
  3:  Exit  {}
end

event 2
      Hint = str[100]  -- ""

  0:  OnLoadMap  {}
  1:  Cmp  {"MapVar10", Value = 15,   jump = 14}
  2:  SetDoorState  {Id = 108, State = 1}
  3:  SetDoorState  {Id = 109, State = 1}
  4:  Set  {"MapVar0", Value = 0}
  5:  Set  {"MapVar1", Value = 0}
  6:  Set  {"MapVar2", Value = 0}
  7:  Set  {"MapVar3", Value = 0}
  8:  Set  {"MapVar4", Value = 0}
  9:  Set  {"MapVar5", Value = 0}
  10: Set  {"MapVar6", Value = 0}
  11: Set  {"MapVar7", Value = 0}
  12: Set  {"MapVar10", Value = 0}
  13: GoTo  {jump = 16}

  14: SetDoorState  {Id = 108, State = 0}
  15: SetDoorState  {Id = 109, State = 0}
  16: SetDoorState  {Id = 110, State = 1}
  17: SetDoorState  {Id = 111, State = 1}
  18: SetDoorState  {Id = 112, State = 1}
  19: SetDoorState  {Id = 113, State = 1}
  20: GoTo  {jump = 21}

  21: Exit  {}
end

event 3
      Hint = str[100]  -- ""

  0:  OnLoadMap  {}
  1:  Exit  {}
end

event 4
      Hint = str[100]  -- ""

  0:  OnLoadMap  {}
  1:  Exit  {}
end

event 5
      Hint = str[100]  -- ""

  0:  OnLoadMap  {}
  1:  Exit  {}
end

event 6
      Hint = str[100]  -- ""

  0:  OnLeaveMap  {}
  1:  ForPlayer  ("All")
  2:  Cmp  {"Inventory", Value = 626,   jump = 4}         -- "Prophecies of the Sun"
  3:  GoTo  {jump = 5}

  4:  Add  {"QBits", Value = 218}         -- Prophesies of the Sun - I lost it
  5:  Exit  {}
end

event 7
      Hint = str[100]  -- ""

  0:  OnLeaveMap  {}
  1:  Exit  {}
end

event 8
      Hint = str[100]  -- ""

  0:  OnLeaveMap  {}
  1:  Exit  {}
end

event 9
      Hint = str[100]  -- ""

  0:  OnLeaveMap  {}
  1:  Exit  {}
end

event 10
      Hint = str[100]  -- ""

  0:  OnLeaveMap  {}
  1:  Cmp  {"QBits", Value = 136,   jump = 6}         -- Found Prophiecies of the Snake
  2:  Cmp  {"Inventory", Value = 652,   jump = 4}         -- "Prophecies of the Snake"
  3:  GoTo  {jump = 6}

  4:  Set  {"QBits", Value = 136}         -- Found Prophiecies of the Snake
  5:  Subtract  {"QBits", Value = 135}         -- "Find the Prophecies of the Snake for Pascella Tisk."
  6:  Exit  {}
end

event 11
      Hint = str[2]  -- "Door"
  0:  SetDoorState  {Id = 1, State = 0}
  1:  SetTexture  {Facet = 10, Name = "t65a05bl"}
  2:  SetTexture  {Facet = 11, Name = "t65a05br"}
  3:  Exit  {}
end

event 12
      Hint = str[100]  -- ""
  0:  SetDoorState  {Id = 2, State = 0}
  1:  Exit  {}
end

event 13
      Hint = str[2]  -- "Door"
  0:  SetDoorState  {Id = 3, State = 0}
  1:  Exit  {}
end

event 14
      Hint = str[2]  -- "Door"
  0:  SetDoorState  {Id = 4, State = 0}
  1:  Exit  {}
end

event 15
      Hint = str[2]  -- "Door"
  0:  SetDoorState  {Id = 5, State = 0}
  1:  Exit  {}
end

event 16
      Hint = str[2]  -- "Door"
  0:  SetDoorState  {Id = 6, State = 0}
  1:  Exit  {}
end

event 17
      Hint = str[2]  -- "Door"
  0:  SetDoorState  {Id = 7, State = 0}
  1:  Exit  {}
end

event 18
      Hint = str[2]  -- "Door"
  0:  SetDoorState  {Id = 8, State = 0}
  1:  Exit  {}
end

event 19
      Hint = str[2]  -- "Door"
  0:  SetDoorState  {Id = 9, State = 0}
  1:  Exit  {}
end

event 20
      Hint = str[5]  -- "Button"
  0:  SetDoorState  {Id = 10, State = 0}
  1:  SetDoorState  {Id = 52, State = 0}
  2:  SetDoorState  {Id = 11, State = 1}
  3:  SetDoorState  {Id = 53, State = 1}
  4:  Exit  {}
end

event 21
      Hint = str[5]  -- "Button"
  0:  SetDoorState  {Id = 11, State = 0}
  1:  SetDoorState  {Id = 53, State = 0}
  2:  SetDoorState  {Id = 10, State = 1}
  3:  SetDoorState  {Id = 52, State = 1}
  4:  Exit  {}
end

event 22
      Hint = str[5]  -- "Button"
  0:  SetDoorState  {Id = 12, State = 0}
  1:  SetDoorState  {Id = 54, State = 0}
  2:  SetDoorState  {Id = 13, State = 1}
  3:  SetDoorState  {Id = 55, State = 1}
  4:  Exit  {}
end

event 23
      Hint = str[5]  -- "Button"
  0:  Cmp  {"MapVar20", Value = 1,   jump = 2}
  1:  SummonMonsters  {TypeIndexInMapStats = 1, Level = 3, Count = 1, X = 8000, Y = 640, Z = -640, NPCGroup = 0, unk = 0}
  2:  SetDoorState  {Id = 13, State = 0}
  3:  SetDoorState  {Id = 55, State = 0}
  4:  SetDoorState  {Id = 12, State = 1}
  5:  SetDoorState  {Id = 54, State = 1}
  6:  Set  {"MapVar20", Value = 1}
  7:  GoTo  {jump = 8}

  8:  Exit  {}
end

event 24
      Hint = str[5]  -- "Button"
  0:  SetDoorState  {Id = 14, State = 0}
  1:  SetDoorState  {Id = 56, State = 0}
  2:  SetDoorState  {Id = 15, State = 1}
  3:  SetDoorState  {Id = 57, State = 1}
  4:  Exit  {}
end

event 25
      Hint = str[5]  -- "Button"
  0:  SetDoorState  {Id = 15, State = 0}
  1:  SetDoorState  {Id = 57, State = 0}
  2:  SetDoorState  {Id = 14, State = 1}
  3:  SetDoorState  {Id = 56, State = 1}
  4:  Exit  {}
end

event 26
      Hint = str[5]  -- "Button"
  0:  SetDoorState  {Id = 16, State = 0}
  1:  SetDoorState  {Id = 58, State = 0}
  2:  SetDoorState  {Id = 17, State = 1}
  3:  SetDoorState  {Id = 59, State = 1}
  4:  Exit  {}
end

event 27
      Hint = str[5]  -- "Button"
  0:  SetDoorState  {Id = 17, State = 0}
  1:  SetDoorState  {Id = 59, State = 0}
  2:  SetDoorState  {Id = 16, State = 1}
  3:  SetDoorState  {Id = 58, State = 1}
  4:  Exit  {}
end

event 28
      Hint = str[5]  -- "Button"
  0:  Cmp  {"MapVar19", Value = 1,   jump = 2}
  1:  SummonMonsters  {TypeIndexInMapStats = 1, Level = 3, Count = 1, X = 9600, Y = -192, Z = -640, NPCGroup = 0, unk = 0}
  2:  SetDoorState  {Id = 18, State = 0}
  3:  SetDoorState  {Id = 60, State = 0}
  4:  SetDoorState  {Id = 19, State = 1}
  5:  SetDoorState  {Id = 61, State = 1}
  6:  Set  {"MapVar19", Value = 1}
  7:  GoTo  {jump = 8}

  8:  Exit  {}
end

event 29
      Hint = str[5]  -- "Button"
  0:  SetDoorState  {Id = 19, State = 0}
  1:  SetDoorState  {Id = 61, State = 0}
  2:  SetDoorState  {Id = 18, State = 1}
  3:  SetDoorState  {Id = 60, State = 1}
  4:  Exit  {}
end

event 30
      Hint = str[5]  -- "Button"
  0:  SetDoorState  {Id = 20, State = 0}
  1:  SetDoorState  {Id = 62, State = 0}
  2:  SetDoorState  {Id = 21, State = 1}
  3:  SetDoorState  {Id = 63, State = 1}
  4:  Exit  {}
end

event 31
      Hint = str[5]  -- "Button"
  0:  Cmp  {"MapVar21", Value = 1,   jump = 2}
  1:  SummonMonsters  {TypeIndexInMapStats = 1, Level = 3, Count = 1, X = 6784, Y = -896, Z = -640, NPCGroup = 0, unk = 0}
  2:  SetDoorState  {Id = 21, State = 0}
  3:  SetDoorState  {Id = 63, State = 0}
  4:  SetDoorState  {Id = 20, State = 1}
  5:  SetDoorState  {Id = 62, State = 1}
  6:  Set  {"MapVar21", Value = 1}
  7:  GoTo  {jump = 8}

  8:  Exit  {}
end

event 32
      Hint = str[5]  -- "Button"
  0:  SetDoorState  {Id = 22, State = 0}
  1:  SetDoorState  {Id = 64, State = 0}
  2:  SetDoorState  {Id = 23, State = 1}
  3:  SetDoorState  {Id = 65, State = 1}
  4:  Exit  {}
end

event 33
      Hint = str[5]  -- "Button"
  0:  Cmp  {"MapVar22", Value = 1,   jump = 2}
  1:  SummonMonsters  {TypeIndexInMapStats = 1, Level = 3, Count = 1, X = 8256, Y = -896, Z = -640, NPCGroup = 0, unk = 0}
  2:  SetDoorState  {Id = 23, State = 0}
  3:  SetDoorState  {Id = 65, State = 0}
  4:  SetDoorState  {Id = 22, State = 1}
  5:  SetDoorState  {Id = 64, State = 1}
  6:  Set  {"MapVar22", Value = 1}
  7:  GoTo  {jump = 8}

  8:  Exit  {}
end

event 34
      Hint = str[5]  -- "Button"
  0:  Cmp  {"MapVar23", Value = 1,   jump = 2}
  1:  SummonMonsters  {TypeIndexInMapStats = 1, Level = 3, Count = 1, X = 8832, Y = -960, Z = -640, NPCGroup = 0, unk = 0}
  2:  SetDoorState  {Id = 24, State = 0}
  3:  SetDoorState  {Id = 66, State = 0}
  4:  SetDoorState  {Id = 25, State = 1}
  5:  SetDoorState  {Id = 67, State = 1}
  6:  Set  {"MapVar23", Value = 1}
  7:  GoTo  {jump = 8}

  8:  Exit  {}
end

event 35
      Hint = str[5]  -- "Button"
  0:  SetDoorState  {Id = 25, State = 0}
  1:  SetDoorState  {Id = 67, State = 0}
  2:  SetDoorState  {Id = 24, State = 1}
  3:  SetDoorState  {Id = 66, State = 1}
  4:  Exit  {}
end

event 36
      Hint = str[5]  -- "Button"
  0:  Cmp  {"MapVar24", Value = 1,   jump = 2}
  1:  SummonMonsters  {TypeIndexInMapStats = 1, Level = 3, Count = 1, X = 9792, Y = -960, Z = -640, NPCGroup = 0, unk = 0}
  2:  SetDoorState  {Id = 26, State = 0}
  3:  SetDoorState  {Id = 68, State = 0}
  4:  SetDoorState  {Id = 27, State = 1}
  5:  SetDoorState  {Id = 69, State = 1}
  6:  Set  {"MapVar24", Value = 1}
  7:  GoTo  {jump = 8}

  8:  Exit  {}
end

event 37
      Hint = str[5]  -- "Button"
  0:  Cmp  {"MapVar25", Value = 1,   jump = 2}
  1:  SummonMonsters  {TypeIndexInMapStats = 1, Level = 3, Count = 1, X = 10176, Y = -960, Z = -640, NPCGroup = 0, unk = 0}
  2:  SetDoorState  {Id = 27, State = 0}
  3:  SetDoorState  {Id = 69, State = 0}
  4:  SetDoorState  {Id = 26, State = 1}
  5:  SetDoorState  {Id = 68, State = 1}
  6:  Set  {"MapVar25", Value = 1}
  7:  GoTo  {jump = 8}

  8:  Exit  {}
end

event 38
      Hint = str[5]  -- "Button"
  0:  Cmp  {"MapVar26", Value = 1,   jump = 2}
  1:  SummonMonsters  {TypeIndexInMapStats = 1, Level = 3, Count = 1, X = 6208, Y = -1664, Z = -640, NPCGroup = 0, unk = 0}
  2:  SetDoorState  {Id = 28, State = 0}
  3:  SetDoorState  {Id = 70, State = 0}
  4:  SetDoorState  {Id = 29, State = 1}
  5:  SetDoorState  {Id = 71, State = 1}
  6:  Set  {"MapVar26", Value = 1}
  7:  GoTo  {jump = 8}

  8:  Exit  {}
end

event 39
      Hint = str[5]  -- "Button"
  0:  Cmp  {"MapVar27", Value = 1,   jump = 2}
  1:  SummonMonsters  {TypeIndexInMapStats = 1, Level = 3, Count = 1, X = 6592, Y = -1664, Z = -640, NPCGroup = 0, unk = 0}
  2:  SetDoorState  {Id = 29, State = 0}
  3:  SetDoorState  {Id = 71, State = 0}
  4:  SetDoorState  {Id = 28, State = 1}
  5:  SetDoorState  {Id = 70, State = 1}
  6:  Set  {"MapVar27", Value = 1}
  7:  GoTo  {jump = 8}

  8:  Exit  {}
end

event 40
      Hint = str[5]  -- "Button"
  0:  SetDoorState  {Id = 30, State = 0}
  1:  SetDoorState  {Id = 72, State = 0}
  2:  SetDoorState  {Id = 31, State = 1}
  3:  SetDoorState  {Id = 73, State = 1}
  4:  Exit  {}
end

event 41
      Hint = str[5]  -- "Button"
  0:  SetDoorState  {Id = 31, State = 0}
  1:  SetDoorState  {Id = 73, State = 0}
  2:  SetDoorState  {Id = 30, State = 1}
  3:  SetDoorState  {Id = 72, State = 1}
  4:  Exit  {}
end

event 42
      Hint = str[5]  -- "Button"
  0:  SetDoorState  {Id = 32, State = 0}
  1:  SetDoorState  {Id = 74, State = 0}
  2:  SetDoorState  {Id = 33, State = 1}
  3:  SetDoorState  {Id = 34, State = 1}
  4:  SetDoorState  {Id = 35, State = 1}
  5:  SetDoorState  {Id = 75, State = 1}
  6:  SetDoorState  {Id = 76, State = 1}
  7:  SetDoorState  {Id = 77, State = 1}
  8:  Exit  {}
end

event 43
      Hint = str[5]  -- "Button"
  0:  Cmp  {"MapVar30", Value = 1,   jump = 2}
  1:  SummonMonsters  {TypeIndexInMapStats = 1, Level = 3, Count = 1, X = 9024, Y = -1728, Z = -640, NPCGroup = 0, unk = 0}
  2:  SetDoorState  {Id = 32, State = 1}
  3:  SetDoorState  {Id = 33, State = 0}
  4:  SetDoorState  {Id = 34, State = 1}
  5:  SetDoorState  {Id = 35, State = 1}
  6:  SetDoorState  {Id = 74, State = 1}
  7:  SetDoorState  {Id = 75, State = 0}
  8:  SetDoorState  {Id = 76, State = 1}
  9:  SetDoorState  {Id = 77, State = 1}
  10: Set  {"MapVar30", Value = 1}
  11: GoTo  {jump = 12}

  12: Exit  {}
end

event 44
      Hint = str[5]  -- "Button"
  0:  Cmp  {"MapVar31", Value = 1,   jump = 2}
  1:  SummonMonsters  {TypeIndexInMapStats = 1, Level = 3, Count = 1, X = 9408, Y = -1728, Z = -640, NPCGroup = 0, unk = 0}
  2:  SetDoorState  {Id = 32, State = 1}
  3:  SetDoorState  {Id = 33, State = 1}
  4:  SetDoorState  {Id = 34, State = 0}
  5:  SetDoorState  {Id = 35, State = 1}
  6:  SetDoorState  {Id = 74, State = 1}
  7:  SetDoorState  {Id = 75, State = 1}
  8:  SetDoorState  {Id = 76, State = 0}
  9:  SetDoorState  {Id = 77, State = 1}
  10: Set  {"MapVar31", Value = 1}
  11: GoTo  {jump = 12}

  12: Exit  {}
end

event 45
      Hint = str[5]  -- "Button"
  0:  SetDoorState  {Id = 32, State = 1}
  1:  SetDoorState  {Id = 33, State = 1}
  2:  SetDoorState  {Id = 34, State = 1}
  3:  SetDoorState  {Id = 35, State = 0}
  4:  SetDoorState  {Id = 74, State = 1}
  5:  SetDoorState  {Id = 75, State = 1}
  6:  SetDoorState  {Id = 76, State = 1}
  7:  SetDoorState  {Id = 77, State = 0}
  8:  Set  {"MapVar31", Value = 0}
  9:  Exit  {}
end

event 46
      Hint = str[5]  -- "Button"
  0:  Cmp  {"MapVar32", Value = 1,   jump = 2}
  1:  SummonMonsters  {TypeIndexInMapStats = 1, Level = 3, Count = 1, X = 7104, Y = -2432, Z = -640, NPCGroup = 0, unk = 0}
  2:  SetDoorState  {Id = 36, State = 0}
  3:  SetDoorState  {Id = 78, State = 0}
  4:  SetDoorState  {Id = 37, State = 1}
  5:  SetDoorState  {Id = 79, State = 1}
  6:  Set  {"MapVar32", Value = 1}
  7:  GoTo  {jump = 8}

  8:  Exit  {}
end

event 47
      Hint = str[5]  -- "Button"
  0:  Cmp  {"MapVar33", Value = 1,   jump = 2}
  1:  SummonMonsters  {TypeIndexInMapStats = 1, Level = 3, Count = 1, X = 7488, Y = -2432, Z = -640, NPCGroup = 0, unk = 0}
  2:  SetDoorState  {Id = 37, State = 0}
  3:  SetDoorState  {Id = 79, State = 0}
  4:  SetDoorState  {Id = 36, State = 1}
  5:  SetDoorState  {Id = 78, State = 1}
  6:  Set  {"MapVar33", Value = 1}
  7:  GoTo  {jump = 8}

  8:  Exit  {}
end

event 48
      Hint = str[5]  -- "Button"
  0:  SetDoorState  {Id = 38, State = 0}
  1:  SetDoorState  {Id = 80, State = 0}
  2:  SetDoorState  {Id = 39, State = 1}
  3:  SetDoorState  {Id = 81, State = 1}
  4:  Exit  {}
end

event 49
      Hint = str[5]  -- "Button"
  0:  Cmp  {"MapVar34", Value = 1,   jump = 2}
  1:  SummonMonsters  {TypeIndexInMapStats = 1, Level = 3, Count = 1, X = 8832, Y = -2496, Z = -640, NPCGroup = 0, unk = 0}
  2:  SetDoorState  {Id = 39, State = 0}
  3:  SetDoorState  {Id = 81, State = 0}
  4:  SetDoorState  {Id = 38, State = 1}
  5:  SetDoorState  {Id = 80, State = 1}
  6:  Set  {"MapVar34", Value = 1}
  7:  GoTo  {jump = 8}

  8:  Exit  {}
end

event 50
      Hint = str[5]  -- "Button"
  0:  Cmp  {"MapVar35", Value = 1,   jump = 2}
  1:  SummonMonsters  {TypeIndexInMapStats = 1, Level = 3, Count = 1, X = 9600, Y = -2496, Z = -640, NPCGroup = 0, unk = 0}
  2:  SetDoorState  {Id = 40, State = 0}
  3:  SetDoorState  {Id = 82, State = 0}
  4:  SetDoorState  {Id = 41, State = 1}
  5:  SetDoorState  {Id = 83, State = 1}
  6:  Set  {"MapVar35", Value = 1}
  7:  GoTo  {jump = 8}

  8:  Exit  {}
end

event 51
      Hint = str[5]  -- "Button"
  0:  Cmp  {"MapVar36", Value = 1,   jump = 2}
  1:  SummonMonsters  {TypeIndexInMapStats = 1, Level = 3, Count = 1, X = 9984, Y = -2496, Z = -640, NPCGroup = 0, unk = 0}
  2:  SetDoorState  {Id = 41, State = 0}
  3:  SetDoorState  {Id = 83, State = 0}
  4:  SetDoorState  {Id = 40, State = 1}
  5:  SetDoorState  {Id = 82, State = 1}
  6:  Set  {"MapVar36", Value = 1}
  7:  GoTo  {jump = 8}

  8:  Exit  {}
end

event 52
      Hint = str[5]  -- "Button"
  0:  SetDoorState  {Id = 42, State = 0}
  1:  SetDoorState  {Id = 43, State = 1}
  2:  SetDoorState  {Id = 44, State = 1}
  3:  SetDoorState  {Id = 45, State = 1}
  4:  SetDoorState  {Id = 46, State = 1}
  5:  SetDoorState  {Id = 47, State = 1}
  6:  SetDoorState  {Id = 84, State = 0}
  7:  SetDoorState  {Id = 85, State = 1}
  8:  SetDoorState  {Id = 86, State = 1}
  9:  SetDoorState  {Id = 87, State = 1}
  10: SetDoorState  {Id = 88, State = 1}
  11: SetDoorState  {Id = 89, State = 1}
  12: Exit  {}
end

event 53
      Hint = str[5]  -- "Button"
  0:  Cmp  {"MapVar37", Value = 1,   jump = 2}
  1:  SummonMonsters  {TypeIndexInMapStats = 1, Level = 3, Count = 1, X = 7872, Y = -3264, Z = -640, NPCGroup = 0, unk = 0}
  2:  SetDoorState  {Id = 42, State = 1}
  3:  SetDoorState  {Id = 43, State = 0}
  4:  SetDoorState  {Id = 44, State = 1}
  5:  SetDoorState  {Id = 45, State = 1}
  6:  SetDoorState  {Id = 46, State = 1}
  7:  SetDoorState  {Id = 47, State = 1}
  8:  SetDoorState  {Id = 84, State = 1}
  9:  SetDoorState  {Id = 85, State = 0}
  10: SetDoorState  {Id = 86, State = 1}
  11: SetDoorState  {Id = 87, State = 1}
  12: SetDoorState  {Id = 88, State = 1}
  13: SetDoorState  {Id = 89, State = 1}
  14: Set  {"MapVar37", Value = 1}
  15: GoTo  {jump = 16}

  16: Exit  {}
end

event 54
      Hint = str[5]  -- "Button"
  0:  Cmp  {"MapVar38", Value = 1,   jump = 2}
  1:  SummonMonsters  {TypeIndexInMapStats = 1, Level = 3, Count = 1, X = 8256, Y = -3264, Z = -640, NPCGroup = 0, unk = 0}
  2:  SetDoorState  {Id = 42, State = 1}
  3:  SetDoorState  {Id = 43, State = 1}
  4:  SetDoorState  {Id = 44, State = 0}
  5:  SetDoorState  {Id = 45, State = 1}
  6:  SetDoorState  {Id = 46, State = 1}
  7:  SetDoorState  {Id = 47, State = 1}
  8:  SetDoorState  {Id = 84, State = 1}
  9:  SetDoorState  {Id = 85, State = 1}
  10: SetDoorState  {Id = 86, State = 0}
  11: SetDoorState  {Id = 87, State = 1}
  12: SetDoorState  {Id = 88, State = 1}
  13: SetDoorState  {Id = 89, State = 1}
  14: Set  {"MapVar38", Value = 1}
  15: GoTo  {jump = 16}

  16: Exit  {}
end

event 55
      Hint = str[5]  -- "Button"
  0:  SetDoorState  {Id = 42, State = 1}
  1:  SetDoorState  {Id = 43, State = 1}
  2:  SetDoorState  {Id = 44, State = 1}
  3:  SetDoorState  {Id = 45, State = 0}
  4:  SetDoorState  {Id = 46, State = 1}
  5:  SetDoorState  {Id = 47, State = 1}
  6:  SetDoorState  {Id = 84, State = 1}
  7:  SetDoorState  {Id = 85, State = 1}
  8:  SetDoorState  {Id = 86, State = 1}
  9:  SetDoorState  {Id = 87, State = 0}
  10: SetDoorState  {Id = 88, State = 1}
  11: SetDoorState  {Id = 89, State = 1}
  12: Exit  {}
end

event 56
      Hint = str[5]  -- "Button"
  0:  Cmp  {"MapVar39", Value = 1,   jump = 2}
  1:  SummonMonsters  {TypeIndexInMapStats = 1, Level = 3, Count = 1, X = 9024, Y = -3264, Z = -640, NPCGroup = 0, unk = 0}
  2:  SetDoorState  {Id = 42, State = 1}
  3:  SetDoorState  {Id = 43, State = 1}
  4:  SetDoorState  {Id = 44, State = 1}
  5:  SetDoorState  {Id = 45, State = 1}
  6:  SetDoorState  {Id = 46, State = 0}
  7:  SetDoorState  {Id = 47, State = 1}
  8:  SetDoorState  {Id = 84, State = 1}
  9:  SetDoorState  {Id = 85, State = 1}
  10: SetDoorState  {Id = 86, State = 1}
  11: SetDoorState  {Id = 87, State = 1}
  12: SetDoorState  {Id = 88, State = 0}
  13: SetDoorState  {Id = 89, State = 1}
  14: Set  {"MapVar39", Value = 1}
  15: GoTo  {jump = 16}

  16: Exit  {}
end

event 57
      Hint = str[5]  -- "Button"
  0:  SetDoorState  {Id = 42, State = 1}
  1:  SetDoorState  {Id = 43, State = 1}
  2:  SetDoorState  {Id = 44, State = 1}
  3:  SetDoorState  {Id = 45, State = 1}
  4:  SetDoorState  {Id = 46, State = 1}
  5:  SetDoorState  {Id = 47, State = 0}
  6:  SetDoorState  {Id = 84, State = 1}
  7:  SetDoorState  {Id = 85, State = 1}
  8:  SetDoorState  {Id = 86, State = 1}
  9:  SetDoorState  {Id = 87, State = 1}
  10: SetDoorState  {Id = 88, State = 1}
  11: SetDoorState  {Id = 89, State = 0}
  12: Exit  {}
end

event 58
      Hint = str[5]  -- "Button"
  0:  Cmp  {"MapVar40", Value = 1,   jump = 2}
  1:  SummonMonsters  {TypeIndexInMapStats = 1, Level = 3, Count = 1, X = 7296, Y = -4032, Z = -640, NPCGroup = 0, unk = 0}
  2:  SetDoorState  {Id = 48, State = 0}
  3:  SetDoorState  {Id = 90, State = 0}
  4:  SetDoorState  {Id = 49, State = 1}
  5:  SetDoorState  {Id = 91, State = 1}
  6:  Set  {"MapVar40", Value = 1}
  7:  GoTo  {jump = 8}

  8:  Exit  {}
end

event 59
      Hint = str[5]  -- "Button"
  0:  Cmp  {"MapVar41", Value = 1,   jump = 2}
  1:  SummonMonsters  {TypeIndexInMapStats = 1, Level = 3, Count = 1, X = 7680, Y = -4032, Z = -640, NPCGroup = 0, unk = 0}
  2:  SetDoorState  {Id = 49, State = 0}
  3:  SetDoorState  {Id = 91, State = 0}
  4:  SetDoorState  {Id = 48, State = 1}
  5:  SetDoorState  {Id = 90, State = 1}
  6:  Set  {"MapVar41", Value = 1}
  7:  GoTo  {jump = 8}

  8:  Exit  {}
end

event 60
      Hint = str[5]  -- "Button"
  0:  Cmp  {"MapVar42", Value = 1,   jump = 2}
  1:  SummonMonsters  {TypeIndexInMapStats = 1, Level = 3, Count = 1, X = 8448, Y = -4032, Z = -640, NPCGroup = 0, unk = 0}
  2:  SetDoorState  {Id = 50, State = 0}
  3:  SetDoorState  {Id = 92, State = 0}
  4:  SetDoorState  {Id = 51, State = 1}
  5:  SetDoorState  {Id = 93, State = 1}
  6:  Set  {"MapVar42", Value = 1}
  7:  GoTo  {jump = 8}

  8:  Exit  {}
end

event 61
      Hint = str[5]  -- "Button"
  0:  Cmp  {"MapVar43", Value = 1,   jump = 2}
  1:  SummonMonsters  {TypeIndexInMapStats = 1, Level = 3, Count = 1, X = 8832, Y = -4032, Z = -640, NPCGroup = 0, unk = 0}
  2:  SetDoorState  {Id = 51, State = 0}
  3:  SetDoorState  {Id = 93, State = 0}
  4:  SetDoorState  {Id = 50, State = 1}
  5:  SetDoorState  {Id = 92, State = 1}
  6:  Set  {"MapVar43", Value = 1}
  7:  GoTo  {jump = 8}

  8:  Exit  {}
end

event 62
      Hint = str[2]  -- "Door"
  0:  SetDoorState  {Id = 108, State = 0}
  1:  Exit  {}
end

event 63
      Hint = str[2]  -- "Door"
  0:  Cmp  {"MapVar10", Value = 1,   jump = 24}
  1:  SetDoorState  {Id = 109, State = 1}
  2:  SetDoorState  {Id = 108, State = 1}
  3:  SetDoorState  {Id = 110, State = 0}
  4:  SetDoorState  {Id = 111, State = 0}
  5:  SetDoorState  {Id = 112, State = 0}
  6:  SetDoorState  {Id = 113, State = 0}
  7:  SetTexture  {Facet = 1, Name = "t65b11c"}
  8:  SetTexture  {Facet = 2, Name = "t65b11c"}
  9:  SetTexture  {Facet = 3, Name = "t65b11c"}
  10: SetTexture  {Facet = 4, Name = "t65b11c"}
  11: SetTexture  {Facet = 5, Name = "t65b11c"}
  12: SetTexture  {Facet = 6, Name = "t65b11c"}
  13: SetTexture  {Facet = 7, Name = "t65b11c"}
  14: SetTexture  {Facet = 8, Name = "t65b11c"}
  15: SetLight  {Id = 1, On = true}
  16: SetLight  {Id = 2, On = true}
  17: SetLight  {Id = 3, On = true}
  18: SetLight  {Id = 4, On = true}
  19: SetLight  {Id = 5, On = true}
  20: SetLight  {Id = 6, On = true}
  21: SetLight  {Id = 7, On = true}
  22: SetLight  {Id = 8, On = true}
  23: Add  {"MapVar10", Value = 1}
  24: Exit  {}
end

event 64
      Hint = str[1]  -- "Leave the Abandoned Temple"
  0:  SetDoorState  {Id = 109, State = 0}
  1:  Exit  {}
end

event 81
      Hint = str[3]  -- "Chest"
  0:  OpenChest  {Id = 0}
  1:  Exit  {}
end

event 82
      Hint = str[3]  -- "Chest"
  0:  OpenChest  {Id = 1}
  1:  Exit  {}
end

event 83
      Hint = str[3]  -- "Chest"
  0:  OpenChest  {Id = 2}
  1:  Exit  {}
end

event 84
      Hint = str[3]  -- "Chest"
  0:  OpenChest  {Id = 3}
  1:  Exit  {}
end

event 85
      Hint = str[3]  -- "Chest"
  0:  OpenChest  {Id = 4}
  1:  Exit  {}
end

event 86
      Hint = str[3]  -- "Chest"
  0:  OpenChest  {Id = 5}
  1:  Exit  {}
end

event 87
      Hint = str[3]  -- "Chest"
  0:  OpenChest  {Id = 6}
  1:  Exit  {}
end

event 88
      Hint = str[3]  -- "Chest"
  0:  OpenChest  {Id = 7}
  1:  Exit  {}
end

event 89
      Hint = str[3]  -- "Chest"
  0:  OpenChest  {Id = 8}
  1:  Exit  {}
end

event 90
      Hint = str[3]  -- "Chest"
  0:  OpenChest  {Id = 9}
  1:  Exit  {}
end

event 91
      Hint = str[3]  -- "Chest"
  0:  OpenChest  {Id = 10}
  1:  Exit  {}
end

event 92
      Hint = str[3]  -- "Chest"
  0:  OpenChest  {Id = 11}
  1:  Exit  {}
end

event 93
      Hint = str[3]  -- "Chest"
  0:  OpenChest  {Id = 12}
  1:  Exit  {}
end

event 94
      Hint = str[3]  -- "Chest"
  0:  OpenChest  {Id = 13}
  1:  Exit  {}
end

event 95
      Hint = str[3]  -- "Chest"
  0:  OpenChest  {Id = 14}
  1:  Exit  {}
end

event 96
      Hint = str[3]  -- "Chest"
  0:  OpenChest  {Id = 15}
  1:  Exit  {}
end

event 97
      Hint = str[3]  -- "Chest"
  0:  OpenChest  {Id = 16}
  1:  Exit  {}
end

event 98
      Hint = str[3]  -- "Chest"
  0:  OpenChest  {Id = 17}
  1:  Exit  {}
end

event 99
      Hint = str[3]  -- "Chest"
  0:  OpenChest  {Id = 18}
  1:  Exit  {}
end

event 100
      Hint = str[3]  -- "Chest"
  0:  OpenChest  {Id = 19}
  1:  Exit  {}
end

event 101
      Hint = str[100]  -- ""
  0:  ForPlayer  ("All")
  1:  Set  {"Dead", Value = 0}
  2:  Exit  {}
end

event 102
      Hint = str[5]  -- "Button"
  0:  Cmp  {"MapVar10", Value = 15,   jump = 13}
  1:  Cmp  {"MapVar10", Value = 1,   jump = 3}
  2:  GoTo  {jump = 13}

  3:  Cmp  {"MapVar0", Value = 1,   jump = 9}
  4:  Set  {"MapVar0", Value = 1}
  5:  Add  {"MapVar10", Value = 1}
  6:  SetTexture  {Facet = 1, Name = "t65b11b"}
  7:  SetLight  {Id = 1, On = false}
  8:  GoTo  {jump = 13}

  9:  Set  {"MapVar0", Value = 0}
  10: Subtract  {"MapVar10", Value = 1}
  11: SetTexture  {Facet = 1, Name = "t65b11c"}
  12: SetLight  {Id = 1, On = true}
  13: Exit  {}
end

event 103
      Hint = str[5]  -- "Button"
  0:  Cmp  {"MapVar10", Value = 15,   jump = 13}
  1:  Cmp  {"MapVar10", Value = 1,   jump = 3}
  2:  GoTo  {jump = 13}

  3:  Cmp  {"MapVar1", Value = 1,   jump = 9}
  4:  Set  {"MapVar1", Value = 1}
  5:  Add  {"MapVar10", Value = 1}
  6:  SetTexture  {Facet = 2, Name = "t65b11b"}
  7:  SetLight  {Id = 2, On = false}
  8:  GoTo  {jump = 13}

  9:  Set  {"MapVar1", Value = 0}
  10: Subtract  {"MapVar10", Value = 1}
  11: SetTexture  {Facet = 2, Name = "t65b11c"}
  12: SetLight  {Id = 2, On = true}
  13: Exit  {}
end

event 104
      Hint = str[5]  -- "Button"
  0:  Cmp  {"MapVar10", Value = 15,   jump = 13}
  1:  Cmp  {"MapVar10", Value = 1,   jump = 3}
  2:  GoTo  {jump = 13}

  3:  Cmp  {"MapVar2", Value = 1,   jump = 9}
  4:  Set  {"MapVar2", Value = 1}
  5:  Add  {"MapVar10", Value = 1}
  6:  SetTexture  {Facet = 3, Name = "t65b11b"}
  7:  SetLight  {Id = 3, On = false}
  8:  GoTo  {jump = 13}

  9:  Set  {"MapVar2", Value = 0}
  10: Subtract  {"MapVar10", Value = 1}
  11: SetTexture  {Facet = 3, Name = "t65b11c"}
  12: SetLight  {Id = 3, On = true}
  13: Exit  {}
end

event 105
      Hint = str[5]  -- "Button"
  0:  Cmp  {"MapVar10", Value = 15,   jump = 13}
  1:  Cmp  {"MapVar10", Value = 1,   jump = 3}
  2:  GoTo  {jump = 13}

  3:  Cmp  {"MapVar3", Value = 1,   jump = 9}
  4:  Set  {"MapVar3", Value = 1}
  5:  Add  {"MapVar10", Value = 1}
  6:  SetTexture  {Facet = 4, Name = "t65b11b"}
  7:  SetLight  {Id = 4, On = false}
  8:  GoTo  {jump = 13}

  9:  Set  {"MapVar3", Value = 0}
  10: Subtract  {"MapVar10", Value = 1}
  11: SetTexture  {Facet = 4, Name = "t65b11c"}
  12: SetLight  {Id = 4, On = true}
  13: Exit  {}
end

event 106
      Hint = str[5]  -- "Button"
  0:  Cmp  {"MapVar10", Value = 15,   jump = 13}
  1:  Cmp  {"MapVar10", Value = 1,   jump = 3}
  2:  GoTo  {jump = 13}

  3:  Cmp  {"MapVar4", Value = 1,   jump = 9}
  4:  Set  {"MapVar4", Value = 1}
  5:  Add  {"MapVar10", Value = 1}
  6:  SetTexture  {Facet = 5, Name = "t65b11b"}
  7:  SetLight  {Id = 5, On = false}
  8:  GoTo  {jump = 13}

  9:  Set  {"MapVar4", Value = 0}
  10: Subtract  {"MapVar10", Value = 1}
  11: SetTexture  {Facet = 5, Name = "t65b11c"}
  12: SetLight  {Id = 5, On = true}
  13: Exit  {}
end

event 107
      Hint = str[5]  -- "Button"
  0:  Cmp  {"MapVar10", Value = 15,   jump = 13}
  1:  Cmp  {"MapVar10", Value = 1,   jump = 3}
  2:  GoTo  {jump = 13}

  3:  Cmp  {"MapVar5", Value = 1,   jump = 9}
  4:  Set  {"MapVar5", Value = 1}
  5:  Add  {"MapVar10", Value = 1}
  6:  SetTexture  {Facet = 6, Name = "t65b11b"}
  7:  SetLight  {Id = 6, On = false}
  8:  GoTo  {jump = 13}

  9:  Set  {"MapVar5", Value = 0}
  10: Subtract  {"MapVar10", Value = 1}
  11: SetTexture  {Facet = 6, Name = "t65b11c"}
  12: SetLight  {Id = 6, On = true}
  13: Exit  {}
end

event 108
      Hint = str[5]  -- "Button"
  0:  Cmp  {"MapVar10", Value = 15,   jump = 13}
  1:  Cmp  {"MapVar10", Value = 1,   jump = 3}
  2:  GoTo  {jump = 13}

  3:  Cmp  {"MapVar6", Value = 1,   jump = 9}
  4:  Set  {"MapVar6", Value = 1}
  5:  Add  {"MapVar10", Value = 1}
  6:  SetTexture  {Facet = 7, Name = "t65b11b"}
  7:  SetLight  {Id = 7, On = false}
  8:  GoTo  {jump = 13}

  9:  Set  {"MapVar6", Value = 0}
  10: Subtract  {"MapVar10", Value = 1}
  11: SetTexture  {Facet = 7, Name = "t65b11c"}
  12: SetLight  {Id = 7, On = true}
  13: Exit  {}
end

event 109
      Hint = str[5]  -- "Button"
  0:  Cmp  {"MapVar10", Value = 15,   jump = 13}
  1:  Cmp  {"MapVar10", Value = 1,   jump = 3}
  2:  GoTo  {jump = 13}

  3:  Cmp  {"MapVar7", Value = 1,   jump = 9}
  4:  Set  {"MapVar7", Value = 1}
  5:  Add  {"MapVar10", Value = 1}
  6:  SetTexture  {Facet = 8, Name = "t65b11b"}
  7:  SetLight  {Id = 8, On = false}
  8:  GoTo  {jump = 13}

  9:  Set  {"MapVar7", Value = 0}
  10: Subtract  {"MapVar10", Value = 1}
  11: SetTexture  {Facet = 8, Name = "t65b11c"}
  12: SetLight  {Id = 8, On = true}
  13: Exit  {}
end

event 110
      Hint = str[100]  -- ""

  0:  OnTimer  {IntervalInHalfMinutes = 5}
  1:  Cmp  {"MapVar10", Value = 15,   jump = 11}
  2:  Cmp  {"MapVar10", Value = 9,   jump = 4}
  3:  GoTo  {jump = 11}

  4:  StopDoor  {Id = 110}
  5:  StopDoor  {Id = 111}
  6:  StopDoor  {Id = 112}
  7:  StopDoor  {Id = 113}
  8:  SetDoorState  {Id = 108, State = 0}
  9:  SetDoorState  {Id = 109, State = 0}
  10: Set  {"MapVar10", Value = 15}
  11: Exit  {}
end

event 111
      Hint = str[100]  -- ""
  0:  CastSpell  {Spell = 24, Mastery = const.Novice, Skill = 10, FromX = 13184, FromY = 2848, FromZ = -464, ToX = 0, ToY = 0, ToZ = 0}         -- "Poison Spray"
  1:  CastSpell  {Spell = 24, Mastery = const.Novice, Skill = 10, FromX = 13088, FromY = 2944, FromZ = -464, ToX = 0, ToY = 0, ToZ = 0}         -- "Poison Spray"
  2:  CastSpell  {Spell = 24, Mastery = const.Novice, Skill = 10, FromX = 13184, FromY = 3040, FromZ = -464, ToX = 0, ToY = 0, ToZ = 0}         -- "Poison Spray"
  3:  CastSpell  {Spell = 24, Mastery = const.Novice, Skill = 10, FromX = 13280, FromY = 2944, FromZ = -464, ToX = 0, ToY = 0, ToZ = 0}         -- "Poison Spray"
  4:  Exit  {}
end

event 112
      Hint = str[100]  -- ""
  0:  CastSpell  {Spell = 24, Mastery = const.Novice, Skill = 10, FromX = 13184, FromY = 1824, FromZ = -464, ToX = 0, ToY = 0, ToZ = 0}         -- "Poison Spray"
  1:  CastSpell  {Spell = 24, Mastery = const.Novice, Skill = 10, FromX = 13088, FromY = 1920, FromZ = -464, ToX = 0, ToY = 0, ToZ = 0}         -- "Poison Spray"
  2:  CastSpell  {Spell = 24, Mastery = const.Novice, Skill = 10, FromX = 13184, FromY = 2016, FromZ = -464, ToX = 0, ToY = 0, ToZ = 0}         -- "Poison Spray"
  3:  CastSpell  {Spell = 24, Mastery = const.Novice, Skill = 10, FromX = 13280, FromY = 1920, FromZ = -464, ToX = 0, ToY = 0, ToZ = 0}         -- "Poison Spray"
  4:  Exit  {}
end

event 113
      Hint = str[100]  -- ""
  0:  CastSpell  {Spell = 24, Mastery = const.Novice, Skill = 10, FromX = 10368, FromY = 2016, FromZ = -464, ToX = 0, ToY = 0, ToZ = 0}         -- "Poison Spray"
  1:  CastSpell  {Spell = 24, Mastery = const.Novice, Skill = 10, FromX = 10464, FromY = 1920, FromZ = -464, ToX = 0, ToY = 0, ToZ = 0}         -- "Poison Spray"
  2:  CastSpell  {Spell = 24, Mastery = const.Novice, Skill = 10, FromX = 10368, FromY = 1824, FromZ = -464, ToX = 0, ToY = 0, ToZ = 0}         -- "Poison Spray"
  3:  CastSpell  {Spell = 24, Mastery = const.Novice, Skill = 10, FromX = 10272, FromY = 1920, FromZ = -464, ToX = 0, ToY = 0, ToZ = 0}         -- "Poison Spray"
  4:  Exit  {}
end

event 114
      Hint = str[100]  -- ""
  0:  CastSpell  {Spell = 24, Mastery = const.Novice, Skill = 10, FromX = 10368, FromY = 3040, FromZ = -464, ToX = 0, ToY = 0, ToZ = 0}         -- "Poison Spray"
  1:  CastSpell  {Spell = 24, Mastery = const.Novice, Skill = 10, FromX = 10464, FromY = 2944, FromZ = -464, ToX = 0, ToY = 0, ToZ = 0}         -- "Poison Spray"
  2:  CastSpell  {Spell = 24, Mastery = const.Novice, Skill = 10, FromX = 10368, FromY = 2848, FromZ = -464, ToX = 0, ToY = 0, ToZ = 0}         -- "Poison Spray"
  3:  CastSpell  {Spell = 24, Mastery = const.Novice, Skill = 10, FromX = 10272, FromY = 2944, FromZ = -464, ToX = 0, ToY = 0, ToZ = 0}         -- "Poison Spray"
  4:  Exit  {}
end

event 115
      Hint = str[100]  -- ""
  0:  CastSpell  {Spell = 2, Mastery = const.Novice, Skill = 10, FromX = 11840, FromY = 2496, FromZ = -448, ToX = 0, ToY = 0, ToZ = 0}         -- "Fire Bolt"
  1:  CastSpell  {Spell = 2, Mastery = const.Novice, Skill = 10, FromX = 11840, FromY = 2368, FromZ = -448, ToX = 0, ToY = 0, ToZ = 0}         -- "Fire Bolt"
  2:  CastSpell  {Spell = 2, Mastery = const.Novice, Skill = 10, FromX = 11712, FromY = 2368, FromZ = -448, ToX = 0, ToY = 0, ToZ = 0}         -- "Fire Bolt"
  3:  CastSpell  {Spell = 2, Mastery = const.Novice, Skill = 10, FromX = 11712, FromY = 2496, FromZ = -448, ToX = 0, ToY = 0, ToZ = 0}         -- "Fire Bolt"
  4:  Exit  {}
end

event 402
      Hint = str[100]  -- ""
  0:  Exit  {}
end

event 451
      Hint = str[100]  -- ""
  0:  Cmp  {"MapVar12", Value = 1,   jump = 8}
  1:  Cmp  {"MapVar11", Value = 3,   jump = 8}
  2:  Cmp  {"MapVar11", Value = 2,   jump = 6}
  3:  Add  {"MapVar11", Value = 1}
  4:  Set  {"MapVar12", Value = 1}
  5:  GoTo  {jump = 8}

  6:  SetFacetBit  {Id = 15, Bit = const.FacetBits.IsSecret, On = true}
  7:  Add  {"MapVar11", Value = 1}
  8:  Exit  {}
end

event 452
      Hint = str[100]  -- ""
  0:  Cmp  {"MapVar12", Value = 1,   jump = 2}
  1:  GoTo  {jump = 3}

  2:  Set  {"MapVar12", Value = 0}
  3:  Exit  {}
end

event 453
      Hint = str[100]  -- ""
  0:  SetDoorState  {Id = 115, State = 0}
  1:  Exit  {}
end

event 501
      Hint = str[1]  -- "Leave the Abandoned Temple"
  0:  MoveToMap  {X = -12789, Y = 18734, Z = 1857, Direction = 1536, LookAngle = 0, SpeedZ = 0, HouseId = 0, Icon = 1, Name = "out01.odm"}
  1:  Exit  {}
end

event 502
      Hint = str[1]  -- "Leave the Abandoned Temple"
  0:  MoveToMap  {X = 21519, Y = 21106, Z = 97, Direction = 1024, LookAngle = 0, SpeedZ = 0, HouseId = 0, Icon = 1, Name = "out01.odm"}
  1:  Exit  {}
end

event 506
      Hint = str[100]  -- ""
  0:  SetDoorState  {Id = 94, State = 0}
  1:  Exit  {}
end

event 507
      Hint = str[100]  -- ""
  0:  SetDoorState  {Id = 95, State = 0}
  1:  Exit  {}
end

event 508
      Hint = str[100]  -- ""
  0:  SetDoorState  {Id = 96, State = 0}
  1:  Exit  {}
end

event 509
      Hint = str[100]  -- ""
  0:  SetDoorState  {Id = 97, State = 0}
  1:  Exit  {}
end

event 510
      Hint = str[100]  -- ""
  0:  SetDoorState  {Id = 98, State = 0}
  1:  Exit  {}
end

event 511
      Hint = str[100]  -- ""
  0:  SetDoorState  {Id = 99, State = 0}
  1:  Exit  {}
end

event 512
      Hint = str[100]  -- ""
  0:  SetDoorState  {Id = 94, State = 1}
  1:  SetDoorState  {Id = 95, State = 1}
  2:  SetDoorState  {Id = 96, State = 1}
  3:  SetDoorState  {Id = 97, State = 1}
  4:  SetDoorState  {Id = 98, State = 1}
  5:  SetDoorState  {Id = 99, State = 1}
  6:  Exit  {}
end

event 513
      Hint = str[5]  -- "Button"
  0:  Cmp  {"MapVar29", Value = 1,   jump = 6}
  1:  SetDoorState  {Id = 100, State = 1}
  2:  SetDoorState  {Id = 101, State = 0}
  3:  SetFacetBit  {Id = 100, Bit = const.FacetBits.Untouchable, On = true}
  4:  SetFacetBit  {Id = 101, Bit = const.FacetBits.MoveByDoor, On = true}
  5:  Set  {"MapVar29", Value = 1}
  6:  Exit  {}
end

event 514
      Hint = str[5]  -- "Button"
  0:  Cmp  {"MapVar29", Value = 2,   jump = 10}
  1:  Cmp  {"MapVar29", Value = 1,   jump = 4}
  2:  StatusText  {Str = 30}         -- "The button will not move"
  3:  GoTo  {jump = 10}

  4:  SetDoorState  {Id = 102, State = 1}
  5:  SetDoorState  {Id = 103, State = 0}
  6:  SetFacetBit  {Id = 101, Bit = const.FacetBits.Untouchable, On = true}
  7:  SetFacetBit  {Id = 101, Bit = const.FacetBits.MoveByDoor, On = false}
  8:  SetFacetBit  {Id = 102, Bit = const.FacetBits.MoveByDoor, On = true}
  9:  Set  {"MapVar29", Value = 2}
  10: Exit  {}
end

event 515
      Hint = str[5]  -- "Button"
  0:  Cmp  {"MapVar29", Value = 3,   jump = 10}
  1:  Cmp  {"MapVar29", Value = 2,   jump = 4}
  2:  StatusText  {Str = 30}         -- "The button will not move"
  3:  GoTo  {jump = 10}

  4:  SetDoorState  {Id = 104, State = 1}
  5:  SetDoorState  {Id = 105, State = 0}
  6:  SetFacetBit  {Id = 102, Bit = const.FacetBits.Untouchable, On = true}
  7:  SetFacetBit  {Id = 102, Bit = const.FacetBits.MoveByDoor, On = false}
  8:  SetFacetBit  {Id = 103, Bit = const.FacetBits.MoveByDoor, On = true}
  9:  Set  {"MapVar29", Value = 3}
  10: Exit  {}
end

event 516
      Hint = str[5]  -- "Button"
  0:  Cmp  {"MapVar29", Value = 4,   jump = 9}
  1:  Cmp  {"MapVar29", Value = 3,   jump = 4}
  2:  StatusText  {Str = 30}         -- "The button will not move"
  3:  GoTo  {jump = 9}

  4:  SetDoorState  {Id = 106, State = 1}
  5:  SetDoorState  {Id = 107, State = 0}
  6:  SetFacetBit  {Id = 103, Bit = const.FacetBits.Untouchable, On = true}
  7:  SetFacetBit  {Id = 103, Bit = const.FacetBits.MoveByDoor, On = false}
  8:  Set  {"MapVar29", Value = 4}
  9:  Exit  {}
end

event 517
      Hint = str[100]  -- ""
  0:  SetDoorState  {Id = 114, State = 0}
  1:  Exit  {}
end
