str[0] = " "
str[1] = "Leave the Plane of Air"
str[2] = "Gate out of the Plane of Air"
str[3] = "Chest"
str[4] = ""
str[5] = ""
str[6] = ""
str[7] = ""
str[8] = ""
str[9] = ""
str[10] = ""
str[11] = ""
str[12] = ""
str[13] = ""
str[14] = ""
str[15] = ""
str[16] = ""
str[17] = ""
str[18] = ""
str[19] = ""
str[20] = ""
str[21] = ""
str[22] = ""
str[23] = ""
str[24] = ""
str[25] = ""
str[26] = ""
str[27] = ""
str[28] = "Take a Drink"
str[29] = "Refreshing"
str[30] = "Air Resistance +10 (Permanent)"
str[31] = ""
str[32] = ""
str[33] = ""
str[34] = ""
str[35] = ""
str[36] = ""
str[37] = ""
str[38] = ""
str[39] = ""
str[40] = ""
str[41] = ""
str[42] = ""
str[43] = ""
str[44] = ""
str[45] = "Castle of Air"
str[46] = "Raven Man Nest"
str[47] = ""
str[48] = ""
str[49] = ""
str[50] = "Enter the Castle of Air"
str[51] = ""
str[52] = ""
str[53] = ""
str[54] = ""
str[55] = ""
str[56] = ""
str[57] = ""
str[58] = ""
str[59] = ""
str[60] = ""
str[61] = ""
str[62] = ""
str[63] = ""
str[64] = ""
str[65] = ""
str[66] = ""
str[67] = ""
str[68] = ""
str[69] = ""
str[70] = ""
str[71] = ""
str[72] = ""
str[73] = ""
str[74] = ""
str[75] = ""
str[76] = ""
str[77] = ""
str[78] = ""
str[79] = ""
str[80] = ""
str[81] = ""
str[82] = ""
str[83] = ""
str[84] = ""
str[85] = ""
str[86] = ""
str[87] = ""
str[88] = ""
str[89] = ""
str[90] = ""
str[91] = ""
str[92] = ""
str[93] = ""
str[94] = ""
str[95] = ""
str[96] = ""
str[97] = ""
str[98] = ""
str[99] = ""
str[100] = ""
str[101] = ""
str[102] = ""
str[103] = ""
str[104] = ""
str[105] = ""
str[106] = ""
str[107] = ""
str[108] = ""
str[109] = ""
str[110] = ""
str[111] = ""
str[112] = ""
str[113] = ""
str[114] = ""
str[115] = ""
str[116] = ""
str[117] = ""
str[118] = ""
str[119] = ""
str[120] = ""
str[121] = ""


event 1
      Hint = str[100]  -- ""

  0:  OnLoadMap  {}
  1:  Exit  {}
end

event 2
      Hint = str[100]  -- ""

  0:  OnLoadMap  {}
  1:  Exit  {}
end

event 3
      Hint = str[100]  -- ""

  0:  OnLoadMap  {}
  1:  Exit  {}
end

event 4
      Hint = str[100]  -- ""

  0:  OnLoadMap  {}
  1:  Exit  {}
end

event 6
      Hint = str[100]  -- ""

  0:  OnLeaveMap  {}
  1:  Cmp  {"QBits", Value = 243,   jump = 8}         -- Got the heart of air
  2:  ForPlayer  ("All")
  3:  Cmp  {"Inventory", Value = 608,   jump = 5}         -- "Heart of Air"
  4:  GoTo  {jump = 8}

  5:  Add  {"QBits", Value = 243}         -- Got the heart of air
  6:  Add  {"Experience", Value = 100000}
  7:  Add  {"QBits", Value = 207}         -- Heart of Air - I lost it
  8:  Exit  {}
end

event 7
      Hint = str[100]  -- ""

  0:  OnLeaveMap  {}
  1:  Exit  {}
end

event 8
      Hint = str[100]  -- ""

  0:  OnLeaveMap  {}
  1:  Exit  {}
end

event 9
      Hint = str[100]  -- ""

  0:  OnLeaveMap  {}
  1:  Exit  {}
end

event 10
      Hint = str[100]  -- ""

  0:  OnLeaveMap  {}
  1:  Exit  {}
end

event 11
      Hint = str[100]  -- ""
  0:  EnterHouse  {Id = 443}         -- "Wingsail's House"
  1:  Exit  {}
end

event 12
      Hint = str[100]  -- ""
  0:  Exit  {}

  1:  EnterHouse  {Id = 443}         -- "Wingsail's House"
  2:  Exit  {}
end

event 13
      Hint = str[100]  -- ""
  0:  EnterHouse  {Id = 444}         -- "Vapor's House"
  1:  Exit  {}
end

event 14
      Hint = str[100]  -- ""
  0:  Exit  {}

  1:  EnterHouse  {Id = 444}         -- "Vapor's House"
  2:  Exit  {}
end

event 15
      Hint = str[100]  -- ""
  0:  EnterHouse  {Id = 445}         -- "Zephyr's House"
  1:  Exit  {}
end

event 16
      Hint = str[100]  -- ""
  0:  Exit  {}

  1:  EnterHouse  {Id = 445}         -- "Zephyr's House"
  2:  Exit  {}
end

event 17
      Hint = str[100]  -- ""
  0:  EnterHouse  {Id = 446}         -- "Empty House"
  1:  Exit  {}
end

event 18
      Hint = str[100]  -- ""
  0:  Exit  {}

  1:  EnterHouse  {Id = 446}         -- "Empty House"
  2:  Exit  {}
end

event 19
      Hint = str[100]  -- ""
  0:  EnterHouse  {Id = 447}         -- "Empty House"
  1:  Exit  {}
end

event 20
      Hint = str[100]  -- ""
  0:  Exit  {}

  1:  EnterHouse  {Id = 447}         -- "Empty House"
  2:  Exit  {}
end

event 21
      Hint = str[100]  -- ""
  0:  EnterHouse  {Id = 448}         -- "Empty House"
  1:  Exit  {}
end

event 22
      Hint = str[100]  -- ""
  0:  Exit  {}

  1:  EnterHouse  {Id = 448}         -- "Empty House"
  2:  Exit  {}
end

event 23
      Hint = str[100]  -- ""
  0:  EnterHouse  {Id = 449}         -- "Empty House"
  1:  Exit  {}
end

event 24
      Hint = str[100]  -- ""
  0:  Exit  {}

  1:  EnterHouse  {Id = 449}         -- "Empty House"
  2:  Exit  {}
end

event 25
      Hint = str[100]  -- ""
  0:  EnterHouse  {Id = 450}         -- "Nedlon's House"
  1:  Exit  {}
end

event 26
      Hint = str[100]  -- ""
  0:  Exit  {}

  1:  EnterHouse  {Id = 450}         -- "Nedlon's House"
  2:  Exit  {}
end

event 81
      Hint = str[3]  -- "Chest"
  0:  OpenChest  {Id = 0}
  1:  Exit  {}
end

event 82
      Hint = str[3]  -- "Chest"
  0:  OpenChest  {Id = 1}
  1:  Exit  {}
end

event 83
      Hint = str[3]  -- "Chest"
  0:  OpenChest  {Id = 2}
  1:  Exit  {}
end

event 84
      Hint = str[3]  -- "Chest"
  0:  OpenChest  {Id = 3}
  1:  Exit  {}
end

event 85
      Hint = str[3]  -- "Chest"
  0:  OpenChest  {Id = 4}
  1:  Exit  {}
end

event 86
      Hint = str[3]  -- "Chest"
  0:  OpenChest  {Id = 5}
  1:  Exit  {}
end

event 87
      Hint = str[3]  -- "Chest"
  0:  OpenChest  {Id = 6}
  1:  Exit  {}
end

event 88
      Hint = str[3]  -- "Chest"
  0:  OpenChest  {Id = 7}
  1:  Exit  {}
end

event 89
      Hint = str[3]  -- "Chest"
  0:  OpenChest  {Id = 8}
  1:  Exit  {}
end

event 90
      Hint = str[3]  -- "Chest"
  0:  OpenChest  {Id = 9}
  1:  Exit  {}
end

event 91
      Hint = str[3]  -- "Chest"
  0:  OpenChest  {Id = 10}
  1:  Exit  {}
end

event 92
      Hint = str[3]  -- "Chest"
  0:  OpenChest  {Id = 11}
  1:  Exit  {}
end

event 93
      Hint = str[3]  -- "Chest"
  0:  OpenChest  {Id = 12}
  1:  Exit  {}
end

event 94
      Hint = str[3]  -- "Chest"
  0:  OpenChest  {Id = 13}
  1:  Exit  {}
end

event 95
      Hint = str[3]  -- "Chest"
  0:  OpenChest  {Id = 14}
  1:  Exit  {}
end

event 96
      Hint = str[3]  -- "Chest"
  0:  OpenChest  {Id = 15}
  1:  Exit  {}
end

event 97
      Hint = str[3]  -- "Chest"
  0:  OpenChest  {Id = 16}
  1:  Exit  {}
end

event 98
      Hint = str[3]  -- "Chest"
  0:  OpenChest  {Id = 17}
  1:  Exit  {}
end

event 99
      Hint = str[3]  -- "Chest"
  0:  OpenChest  {Id = 18}
  1:  Exit  {}
end

event 100
      Hint = str[3]  -- "Chest"
  0:  OpenChest  {Id = 19}
  1:  Exit  {}
end

event 401
      Hint = str[45]  -- "Castle of Air"
  0:  Exit  {}
end

event 402
      Hint = str[46]  -- "Raven Man Nest"
  0:  Exit  {}
end

event 403
      Hint = str[2]  -- "Gate out of the Plane of Air"
  0:  Exit  {}
end

event 451
      Hint = str[28]  -- "Take a Drink"
  0:  Cmp  {"AirResistance", Value = 10,   jump = 5}
  1:  Add  {"AirResistance", Value = 2}
  2:  StatusText  {Str = 30}         -- "Air Resistance +10 (Permanent)"
  3:  Add  {"AutonotesBits", Value = 268}         -- "Well in the Plane of Air gives a permanent Air Resistance bonus up to an Air Resistance of 10."
  4:  GoTo  {jump = 6}

  5:  StatusText  {Str = 29}         -- "Refreshing"
  6:  Exit  {}
end

event 501
      Hint = str[50]  -- "Enter the Castle of Air"
  0:  MoveToMap  {X = -545, Y = -2124, Z = 0, Direction = 512, LookAngle = 0, SpeedZ = 0, HouseId = 214, Icon = 1, Name = "D27.blv"}         -- "Castle of Air"
  1:  Exit  {}
end

event 505
      Hint = str[1]  -- "Leave the Plane of Air"
  0:  MoveToMap  {X = -334, Y = 21718, Z = 385, Direction = 1536, LookAngle = 0, SpeedZ = 0, HouseId = 0, Icon = 1, Name = "Out07.odm"}
  1:  Exit  {}
end
