str[0] = " "
str[1] = "Door"
str[2] = "Leave the Mercenary Guild"
str[3] = "Chest"
str[4] = "Button"
str[5] = "Lever"
str[6] = "Vault"
str[7] = "Cabinet"
str[8] = "Switch"
str[9] = ""
str[10] = "Bookcase"
str[11] = "Wine Rack"
str[12] = "You see nothing of interest"
str[13] = ""
str[14] = "You Successfully disarm the trap"
str[15] = ""
str[16] = "Take a Drink"
str[17] = "Not Very Refreshing"
str[18] = "Refreshing"
str[19] = ""
str[20] = ""
str[21] = ""
str[22] = ""
str[23] = ""
str[24] = ""
str[25] = ""
str[26] = ""
str[27] = ""
str[28] = ""
str[29] = ""
str[30] = ""
str[31] = ""
str[32] = ""
str[33] = ""
str[34] = ""
str[35] = ""
str[36] = ""
str[37] = ""
str[38] = ""
str[39] = ""
str[40] = ""
str[41] = ""
str[42] = ""
str[43] = ""
str[44] = ""
str[45] = ""
str[46] = ""
str[47] = ""
str[48] = ""
str[49] = ""
str[50] = ""
str[51] = ""
str[52] = ""
str[53] = ""
str[54] = ""
str[55] = ""
str[56] = ""
str[57] = ""
str[58] = ""
str[59] = ""
str[60] = ""
str[61] = ""
str[62] = ""
str[63] = ""
str[64] = ""
str[65] = ""
str[66] = ""
str[67] = ""
str[68] = ""
str[69] = ""
str[70] = ""
str[71] = ""
str[72] = ""
str[73] = ""
str[74] = ""
str[75] = ""
str[76] = ""
str[77] = ""
str[78] = ""
str[79] = ""
str[80] = ""
str[81] = ""
str[82] = ""
str[83] = ""
str[84] = ""
str[85] = ""
str[86] = ""
str[87] = ""
str[88] = ""
str[89] = ""
str[90] = ""
str[91] = ""
str[92] = ""
str[93] = ""
str[94] = ""
str[95] = ""
str[96] = ""
str[97] = ""
str[98] = ""
str[99] = ""
str[100] = ""
str[101] = ""
str[102] = ""
str[103] = ""
str[104] = ""
str[105] = ""
str[106] = ""
str[107] = ""
str[108] = ""
str[109] = ""
str[110] = ""
str[111] = ""
str[112] = ""
str[113] = ""
str[114] = ""
str[115] = ""
str[116] = ""
str[117] = ""
str[118] = ""
str[119] = ""
str[120] = ""
str[121] = ""


event 1
      Hint = str[100]  -- ""

  0:  OnLoadMap  {}
  1:  SetMonGroupBit  {NPCGroup = 5, Bit = const.MonsterBits.Hostile, On = true}         -- "Generic Monster Group for Dungeons"
end

event 3
  0:  SetDoorState  {Id = 3, State = 1}
end

event 4
  0:  SetDoorState  {Id = 4, State = 0}
end

event 5
  0:  SetDoorState  {Id = 4, State = 1}
end

event 6
  0:  SetDoorState  {Id = 5, State = 0}
end

event 7
  0:  SetDoorState  {Id = 5, State = 1}
end

event 8
  0:  SetDoorState  {Id = 6, State = 0}
end

event 9
  0:  SetDoorState  {Id = 6, State = 1}
end

event 10
  0:  SetDoorState  {Id = 7, State = 2}         -- switch state
end

event 11
  0:  SetDoorState  {Id = 7, State = 1}
end

event 12
  0:  SetDoorState  {Id = 8, State = 0}
  1:  SetDoorState  {Id = 9, State = 0}
end

event 13
  0:  SetDoorState  {Id = 8, State = 1}
  1:  SetDoorState  {Id = 9, State = 1}
end

event 14
  0:  SetDoorState  {Id = 10, State = 0}
  1:  SetDoorState  {Id = 11, State = 0}
end

event 15
  0:  SetDoorState  {Id = 10, State = 1}
  1:  SetDoorState  {Id = 11, State = 1}
end

event 16
      Hint = str[10]  -- "Bookcase"
  0:  SetDoorState  {Id = 12, State = 0}
  1:  SetDoorState  {Id = 37, State = 0}
end

event 17
  0:  SetDoorState  {Id = 12, State = 1}
  1:  SetDoorState  {Id = 37, State = 1}
end

event 18
  0:  SetDoorState  {Id = 2, State = 0}
  1:  SetDoorState  {Id = 1, State = 0}
end

event 19
  0:  SetDoorState  {Id = 3, State = 0}
end

event 20
  0:  SetDoorState  {Id = 17, State = 0}
  1:  SetDoorState  {Id = 18, State = 0}
end

event 21
  0:  SetDoorState  {Id = 17, State = 1}
  1:  SetDoorState  {Id = 18, State = 1}
end

event 22
      Hint = str[10]  -- "Bookcase"
  0:  SetDoorState  {Id = 23, State = 0}
  1:  SetDoorState  {Id = 24, State = 0}
end

event 23
  0:  SetDoorState  {Id = 25, State = 0}
  1:  SetDoorState  {Id = 26, State = 0}
end

event 24
  0:  SetDoorState  {Id = 25, State = 1}
  1:  SetDoorState  {Id = 26, State = 1}
end

event 25
  0:  SetDoorState  {Id = 27, State = 0}
  1:  SetDoorState  {Id = 28, State = 0}
  2:  CastSpell  {Spell = 39, Mastery = const.GM, Skill = 7, FromX = -1136, FromY = 4480, FromZ = 29, ToX = 112, ToY = 4480, ToZ = 160}         -- "Blades"
end

event 26
  0:  SetDoorState  {Id = 27, State = 1}
  1:  SetDoorState  {Id = 28, State = 1}
end

event 27
  0:  SetDoorState  {Id = 29, State = 0}
  1:  SetDoorState  {Id = 30, State = 0}
end

event 28
  0:  SetDoorState  {Id = 29, State = 1}
  1:  SetDoorState  {Id = 30, State = 1}
end

event 29
  0:  SetDoorState  {Id = 31, State = 0}
end

event 30
  0:  SetDoorState  {Id = 31, State = 1}
end

event 31
  0:  SetDoorState  {Id = 32, State = 0}
end

event 32
  0:  SetDoorState  {Id = 32, State = 1}
end

event 176
      Hint = str[3]  -- "Chest"
  0:  OpenChest  {Id = 1}
end

event 177
      Hint = str[3]  -- "Chest"
  0:  OpenChest  {Id = 2}
end

event 178
      Hint = str[3]  -- "Chest"
  0:  Cmp  {"QBits", Value = 217,   jump = 3}         -- Heart of Wood - I lost it
  1:  OpenChest  {Id = 3}
  2:  Add  {"QBits", Value = 217}         -- Heart of Wood - I lost it
  3:  Exit  {}
end

event 179
      Hint = str[3]  -- "Chest"
  0:  OpenChest  {Id = 4}
end

event 180
      Hint = str[3]  -- "Chest"
  0:  OpenChest  {Id = 5}
end

event 181
      Hint = str[3]  -- "Chest"
  0:  OpenChest  {Id = 6}
end

event 182
      Hint = str[3]  -- "Chest"
  0:  OpenChest  {Id = 7}
end

event 183
      Hint = str[3]  -- "Chest"
  0:  OpenChest  {Id = 8}
end

event 184
      Hint = str[3]  -- "Chest"
  0:  OpenChest  {Id = 9}
end

event 185
      Hint = str[3]  -- "Chest"
  0:  OpenChest  {Id = 10}
end

event 186
      Hint = str[3]  -- "Chest"
  0:  OpenChest  {Id = 11}
end

event 187
      Hint = str[3]  -- "Chest"
  0:  OpenChest  {Id = 12}
end

event 188
      Hint = str[3]  -- "Chest"
  0:  OpenChest  {Id = 13}
end

event 189
      Hint = str[3]  -- "Chest"
  0:  OpenChest  {Id = 14}
end

event 190
      Hint = str[3]  -- "Chest"
  0:  OpenChest  {Id = 15}
end

event 191
      Hint = str[3]  -- "Chest"
  0:  OpenChest  {Id = 16}
end

event 192
      Hint = str[3]  -- "Chest"
  0:  OpenChest  {Id = 17}
end

event 193
      Hint = str[3]  -- "Chest"
  0:  OpenChest  {Id = 18}
end

event 194
      Hint = str[3]  -- "Chest"
  0:  OpenChest  {Id = 19}
end

event 195
      Hint = str[3]  -- "Chest"
  0:  OpenChest  {Id = 0}
end

event 196
      Hint = str[11]  -- "Wine Rack"
  0:  Cmp  {"MapVar4", Value = 2,   jump = 14}
  1:  RandomGoTo  {jumpA = 2, jumpB = 2, jumpC = 12, jumpD = 12, jumpE = 13, jumpF = 14}
  2:  RandomGoTo  {jumpA = 3, jumpB = 5, jumpC = 7, jumpD = 9, jumpE = 11, jumpF = 12}
  3:  Add  {"Inventory", Value = 223}         -- "Magic Potion"
  4:  GoTo  {jump = 12}

  5:  Add  {"Inventory", Value = 227}         -- "Awaken"
  6:  GoTo  {jump = 12}

  7:  Add  {"Inventory", Value = 228}         -- "Haste"
  8:  GoTo  {jump = 12}

  9:  Add  {"Inventory", Value = 222}         -- "Cure Wounds"
  10: GoTo  {jump = 12}

  11: Add  {"Inventory", Value = 238}         -- "Remove Curse"
  12: RandomGoTo  {jumpA = 13, jumpB = 13, jumpC = 13, jumpD = 13, jumpE = 14, jumpF = 14}
  13: Add  {"MapVar4", Value = 1}
  14: Exit  {}
end

event 197
  0:  SetDoorState  {Id = 19, State = 2}         -- switch state
end

event 198
  0:  SetDoorState  {Id = 20, State = 2}         -- switch state
end

event 199
  0:  SetDoorState  {Id = 21, State = 2}         -- switch state
end

event 200
  0:  SetDoorState  {Id = 22, State = 2}         -- switch state
end

event 451
      Hint = str[100]  -- ""
  0:  CastSpell  {Spell = 24, Mastery = const.GM, Skill = 2, FromX = 2240, FromY = 4336, FromZ = 215, ToX = 2240, ToY = 4336, ToZ = -64}         -- "Poison Spray"
  1:  CastSpell  {Spell = 24, Mastery = const.GM, Skill = 2, FromX = 2464, FromY = 4032, FromZ = 215, ToX = 2464, ToY = 4336, ToZ = -64}         -- "Poison Spray"
end

event 452
      Hint = str[10]  -- "Bookcase"
  0:  StatusText  {Str = 12}         -- "You see nothing of interest"
end

event 501
      Hint = str[2]  -- "Leave the Mercenary Guild"
  0:  MoveToMap  {X = 17920, Y = 16803, Z = 3072, Direction = 1536, LookAngle = 0, SpeedZ = 0, HouseId = 0, Icon = 8, Name = "Out13.odm"}
end
